<svg width="16" height="16" viewBox="0 0 16 16" fill="none" xmlns="http://www.w3.org/2000/svg">
<path d="M8.66663 11.3334C8.48253 11.3334 8.33329 11.4827 8.33329 11.6667C8.33329 11.8508 8.48253 12.0001 8.66663 12.0001L8.66663 11.3334ZM9.33329 8.83341L13 8.83341L13 8.16675L9.33329 8.16675L9.33329 8.83341ZM9.33329 8.50008C9.60287 8.30402 9.60293 8.30411 9.60299 8.3042C9.60301 8.30422 9.60307 8.3043 9.6031 8.30434C9.60316 8.30442 9.6032 8.30448 9.60323 8.30453C9.6033 8.30461 9.6033 8.30462 9.60325 8.30454C9.60314 8.30439 9.6028 8.30392 9.60224 8.30313C9.60112 8.30155 9.59911 8.29871 9.5963 8.29465C9.59068 8.28653 9.58186 8.27356 9.57044 8.25611C9.54758 8.22117 9.5145 8.16851 9.47607 8.10105C9.39887 7.9655 9.30198 7.77351 9.22257 7.54787C9.06124 7.08948 8.98762 6.53951 9.23109 6.03648L8.63102 5.74604C8.27708 6.4773 8.40457 7.23175 8.59371 7.76919C8.68954 8.04147 8.80522 8.27025 8.89678 8.431C8.94274 8.51169 8.98309 8.57606 9.01257 8.62111C9.02732 8.64365 9.03938 8.66142 9.04811 8.67404C9.05248 8.68035 9.05602 8.68537 9.05864 8.68907C9.05996 8.69092 9.06104 8.69244 9.06189 8.69362C9.06231 8.69421 9.06268 8.69471 9.06298 8.69513C9.06313 8.69534 9.06327 8.69553 9.06339 8.6957C9.06345 8.69578 9.06353 8.69589 9.06356 8.69593C9.06364 8.69604 9.06371 8.69614 9.33329 8.50008ZM10.0236 5.66675L13 5.66675L13 5.00008L10.0236 5.00008L10.0236 5.66675ZM9.33329 11.6667C9.60287 11.4707 9.60294 11.4708 9.60301 11.4709C9.60303 11.4709 9.60309 11.471 9.60312 11.471C9.60319 11.4711 9.60323 11.4712 9.60326 11.4712C9.60331 11.4713 9.60328 11.4713 9.60318 11.4711C9.60297 11.4708 9.60246 11.4701 9.60165 11.469C9.60004 11.4667 9.59727 11.4627 9.59346 11.4572C9.58584 11.4461 9.57407 11.4286 9.55911 11.4053C9.52914 11.3586 9.48662 11.289 9.43902 11.201C9.34322 11.0237 9.23007 10.7777 9.15537 10.4975C9.00651 9.93931 9.01655 9.28822 9.56899 8.73578L9.09759 8.26438C8.31669 9.04527 8.32674 9.97752 8.51121 10.6693C8.60317 11.0142 8.74003 11.3098 8.85255 11.518C8.90913 11.6226 8.96036 11.7067 8.9981 11.7654C9.01699 11.7949 9.03256 11.8181 9.04382 11.8345C9.04945 11.8427 9.054 11.8492 9.05736 11.8539C9.05904 11.8563 9.06041 11.8582 9.06148 11.8597C9.06201 11.8605 9.06246 11.8611 9.06284 11.8616C9.06302 11.8619 9.06319 11.8621 9.06333 11.8623C9.06341 11.8624 9.0635 11.8625 9.06354 11.8626C9.06363 11.8627 9.06371 11.8628 9.33329 11.6667ZM13 11.3334L9.33329 11.3334L9.33329 12.0001L13 12.0001L13 11.3334ZM9.33329 11.3334L8.66663 11.3334L8.66663 12.0001L9.33329 12.0001L9.33329 11.3334ZM9.23109 6.03648C9.34208 5.80718 9.63659 5.66675 10.0236 5.66675L10.0236 5.00008C9.52665 5.00008 8.90519 5.17959 8.63102 5.74604L9.23109 6.03648Z" fill="#055C81"/>
<path d="M2.66671 5.55645C2.66671 5.37235 2.51747 5.22311 2.33337 5.22311C2.14928 5.22311 2.00004 5.37235 2.00004 5.55645H2.66671ZM2.66671 11.9999V6.26079H2.00004V11.9999H2.66671ZM2.66671 6.26079V5.55645H2.00004V6.26079H2.66671ZM2.33337 6.26079C2.52373 6.53442 2.52365 6.53448 2.52357 6.53453C2.52356 6.53454 2.52349 6.53459 2.52347 6.5346C2.52342 6.53464 2.5234 6.53465 2.52341 6.53464C2.52344 6.53462 2.52361 6.53451 2.52391 6.5343C2.52451 6.53389 2.52564 6.53311 2.52731 6.53198C2.53064 6.52972 2.53607 6.52605 2.54353 6.5211C2.55846 6.51121 2.58146 6.49621 2.61191 6.4771C2.67285 6.43885 2.76336 6.38428 2.87833 6.32125C3.10892 6.19486 3.43455 6.03633 3.815 5.90683C4.5852 5.64466 5.52483 5.51933 6.36209 5.94273L6.66294 5.34781C5.5926 4.80653 4.44265 4.98896 3.60018 5.27572C3.1743 5.42068 2.81282 5.59691 2.55788 5.73665C2.4301 5.8067 2.32823 5.86805 2.2575 5.91245C2.22211 5.93466 2.19445 5.95267 2.17517 5.96545C2.16553 5.97184 2.15797 5.97693 2.15259 5.98059C2.1499 5.98242 2.14775 5.98389 2.14615 5.98499C2.14535 5.98554 2.14469 5.986 2.14417 5.98636C2.14391 5.98654 2.14368 5.98669 2.14349 5.98683C2.14339 5.98689 2.14327 5.98697 2.14323 5.98701C2.14312 5.98708 2.14302 5.98715 2.33337 6.26079ZM7.00004 7.29106V11.9999H7.66671V7.29106H7.00004ZM6.36209 5.94273C6.78681 6.15751 7.00004 6.6823 7.00004 7.29106H7.66671C7.66671 6.5775 7.41824 5.72976 6.66294 5.34781L6.36209 5.94273Z" fill="#055C81"/>
<path d="M1.66663 3.66675H14.3333V12.0001" stroke="#055C81" stroke-width="0.666667"/>
</svg>
