[
  {
    "projectName": "Site vitrine de l'USMV",
    "projectDesc": "Site ayant pour objectif de promouvoir l'association et de délivrer les informations aux éventuels nouveaux adhérents.",
    "url": "https://villeparisisbadminton77.fr",
    "imageName": "usmv_showcase.png"
  },
  {
    "projectName": "Application Club",
    "projectDesc": "Application web proposée aux adhérents pour communiquer et gérer les compétitions au sein du club.",
    "url": "https://app.villeparisisbadminton77.fr",
    "imageName": "usmv_app.png"
  }
]